{
    "born": [
        {
            "name":"sztylet",
            "lvl":"3",
            "statistic":"5"
        },
        {
            "name":"sznurek",
            "lvl":"1",
            "statistic":"1"
        },
        {
            "name":"kastet",
            "lvl":"2",
            "statistic":"3"
        },
        {
            "name":"patyk",
            "lvl":"1",
            "statistic":"2"
        }
    ],
    "chelm": [
        {
            "name":"czapka",
            "lvl":"1",
            "statistic":"1"
        },
        {
            "name":"skorzany chelm",
            "lvl":"3",
            "statistic":"2"
        }
    ],
    "zbroja": [
        {
            "name":"koszulka",
            "lvl":"1",
            "statistic":"1"
        },
        {
            "name":"deska",
            "lvl":"1",
            "statistic":"2"
        },
        {
            "name":"przepaska skorzana",
            "lvl":"2",
            "statistic":"3"
        },
        {
            "name":"skorzana zbroja",
            "lvl":"3",
            "statistic":"5"
        }
    ],
    "spodnie": [
        {
            "name":"skorzane spodenki",
            "lvl":"1",
            "statistic":"1"
        },
        {
            "name":"skorzane spodnie",
            "lvl":"2",
            "statistic":"2"
        }
    ],
    "buty": [
        {
            "name":"japonki",
            "lvl":"1",
            "statistic":"1"
        },
        {
            "name":"drewniane sandały",
            "lvl":"1",
            "statistic":"2"
        },
        {
            "name":"skorzane sandaly",
            "lvl":"2",
            "statistic":"3"
        },
        {
            "name":"skorzane boty",
            "lvl":"3",
            "statistic":"5"
        }
    ],
    "rekawiczki": [
        {
            "name":"naparstek",
            "lvl":"1",
            "statistic":"1"
        },
        {
            "name":"skurzany palec",
            "lvl":"2",
            "statistic":"2"
        },
        {
            "name":"rekwiczka",
            "lvl":"3",
            "statistic":"3"
        }
    ]
}